%YAML 1.1
%TAG !u! tag:unity3d.com,2011:
--- !u!1001 &7309590351364588591
PrefabInstance:
  m_ObjectHideFlags: 0
  serializedVersion: 2
  m_Modification:
    m_TransformParent: {fileID: 0}
    m_Modifications:
    - target: {fileID: 6234679851003491943, guid: 40af7c37cae23d24da6fd10a2d646f9e,
        type: 3}
      propertyPath: m_Name
      value: Ship Purple
      objectReference: {fileID: 0}
    - target: {fileID: 6234679851003491938, guid: 40af7c37cae23d24da6fd10a2d646f9e,
        type: 3}
      propertyPath: m_LocalPosition.x
      value: 0
      objectReference: {fileID: 0}
    - target: {fileID: 6234679851003491938, guid: 40af7c37cae23d24da6fd10a2d646f9e,
        type: 3}
      propertyPath: m_LocalPosition.y
      value: 0
      objectReference: {fileID: 0}
    - target: {fileID: 6234679851003491938, guid: 40af7c37cae23d24da6fd10a2d646f9e,
        type: 3}
      propertyPath: m_LocalPosition.z
      value: 0
      objectReference: {fileID: 0}
    - target: {fileID: 6234679851003491938, guid: 40af7c37cae23d24da6fd10a2d646f9e,
        type: 3}
      propertyPath: m_LocalRotation.x
      value: -0
      objectReference: {fileID: 0}
    - target: {fileID: 6234679851003491938, guid: 40af7c37cae23d24da6fd10a2d646f9e,
        type: 3}
      propertyPath: m_LocalRotation.y
      value: -0
      objectReference: {fileID: 0}
    - target: {fileID: 6234679851003491938, guid: 40af7c37cae23d24da6fd10a2d646f9e,
        type: 3}
      propertyPath: m_LocalRotation.z
      value: -0
      objectReference: {fileID: 0}
    - target: {fileID: 6234679851003491938, guid: 40af7c37cae23d24da6fd10a2d646f9e,
        type: 3}
      propertyPath: m_LocalRotation.w
      value: 1
      objectReference: {fileID: 0}
    - target: {fileID: 6234679851003491938, guid: 40af7c37cae23d24da6fd10a2d646f9e,
        type: 3}
      propertyPath: m_RootOrder
      value: 0
      objectReference: {fileID: 0}
    - target: {fileID: 6234679851003491938, guid: 40af7c37cae23d24da6fd10a2d646f9e,
        type: 3}
      propertyPath: m_LocalEulerAnglesHint.x
      value: 0
      objectReference: {fileID: 0}
    - target: {fileID: 6234679851003491938, guid: 40af7c37cae23d24da6fd10a2d646f9e,
        type: 3}
      propertyPath: m_LocalEulerAnglesHint.y
      value: 0
      objectReference: {fileID: 0}
    - target: {fileID: 6234679851003491938, guid: 40af7c37cae23d24da6fd10a2d646f9e,
        type: 3}
      propertyPath: m_LocalEulerAnglesHint.z
      value: 0
      objectReference: {fileID: 0}
    - target: {fileID: 6234679851003491939, guid: 40af7c37cae23d24da6fd10a2d646f9e,
        type: 3}
      propertyPath: m_Sprite
      value: 
      objectReference: {fileID: 8469615982432773603, guid: 3000c0d1fc9c8ff49a741ece398771c2,
        type: 3}
    - target: {fileID: 6234679851003491942, guid: 40af7c37cae23d24da6fd10a2d646f9e,
        type: 3}
      propertyPath: trailColor.r
      value: 0.6627451
      objectReference: {fileID: 0}
    - target: {fileID: 6234679851003491942, guid: 40af7c37cae23d24da6fd10a2d646f9e,
        type: 3}
      propertyPath: trailColor.g
      value: 0
      objectReference: {fileID: 0}
    - target: {fileID: 6758532383095470803, guid: 40af7c37cae23d24da6fd10a2d646f9e,
        type: 3}
      propertyPath: frames.Array.data[0]
      value: 
      objectReference: {fileID: -357967061327236827, guid: a72f28ab591a533499bb62da77691954,
        type: 3}
    - target: {fileID: 6758532383095470803, guid: 40af7c37cae23d24da6fd10a2d646f9e,
        type: 3}
      propertyPath: frames.Array.data[1]
      value: 
      objectReference: {fileID: 8671877679577227541, guid: a72f28ab591a533499bb62da77691954,
        type: 3}
    - target: {fileID: 6758532383095470803, guid: 40af7c37cae23d24da6fd10a2d646f9e,
        type: 3}
      propertyPath: frames.Array.data[2]
      value: 
      objectReference: {fileID: -8691902102619222641, guid: a72f28ab591a533499bb62da77691954,
        type: 3}
    - target: {fileID: 156382335464447352, guid: 40af7c37cae23d24da6fd10a2d646f9e,
        type: 3}
      propertyPath: frames.Array.data[0]
      value: 
      objectReference: {fileID: -8691902102619222641, guid: a72f28ab591a533499bb62da77691954,
        type: 3}
    - target: {fileID: 156382335464447352, guid: 40af7c37cae23d24da6fd10a2d646f9e,
        type: 3}
      propertyPath: frames.Array.data[1]
      value: 
      objectReference: {fileID: -6961404470297916030, guid: a72f28ab591a533499bb62da77691954,
        type: 3}
    - target: {fileID: 156382335464447352, guid: 40af7c37cae23d24da6fd10a2d646f9e,
        type: 3}
      propertyPath: frames.Array.data[2]
      value: 
      objectReference: {fileID: 4609446106474854956, guid: a72f28ab591a533499bb62da77691954,
        type: 3}
    - target: {fileID: 156382335464447352, guid: 40af7c37cae23d24da6fd10a2d646f9e,
        type: 3}
      propertyPath: endFrame
      value: 
      objectReference: {fileID: 8469615982432773603, guid: 3000c0d1fc9c8ff49a741ece398771c2,
        type: 3}
    - target: {fileID: 141255647890760479, guid: 40af7c37cae23d24da6fd10a2d646f9e,
        type: 3}
      propertyPath: frames.Array.data[0]
      value: 
      objectReference: {fileID: -3549819232148903352, guid: a72f28ab591a533499bb62da77691954,
        type: 3}
    - target: {fileID: 141255647890760479, guid: 40af7c37cae23d24da6fd10a2d646f9e,
        type: 3}
      propertyPath: frames.Array.data[1]
      value: 
      objectReference: {fileID: 7172486175698806862, guid: a72f28ab591a533499bb62da77691954,
        type: 3}
    - target: {fileID: 141255647890760479, guid: 40af7c37cae23d24da6fd10a2d646f9e,
        type: 3}
      propertyPath: frames.Array.data[2]
      value: 
      objectReference: {fileID: -1152419127635695654, guid: a72f28ab591a533499bb62da77691954,
        type: 3}
    - target: {fileID: 141255647890760479, guid: 40af7c37cae23d24da6fd10a2d646f9e,
        type: 3}
      propertyPath: frames.Array.data[3]
      value: 
      objectReference: {fileID: 7275760017835468433, guid: a72f28ab591a533499bb62da77691954,
        type: 3}
    m_RemovedComponents: []
  m_SourcePrefab: {fileID: 100100000, guid: 40af7c37cae23d24da6fd10a2d646f9e, type: 3}
